{
  "name": "UHD RFID Encode",
  "id": 5,
  "args": [
    {
      "name": "Order number",
      "description": "Sales order number of produced order"
    },
    {
      "name": "Serial Port",
      "description": "Serial Port to be used",
      "type": "COM"
    },
    {
      "name": "EPC list file",
      "type": "file",
      "description": "File containing EPC numbers. First row should have headers 'VISUAL' and 'EPC', unknown or empty column headers are ignored'",
      "example": "/exampleFiles/uhf_epc.csv",
      "optional": false,
      "onchange": "parseListFromCSV(this, ['VISUAL', 'EPC'], setArg, [5, 2])"
    }
  ],
  "description": "Encodes UHF tags using M652 RFID Pad Reader and a CSV file"
}