serial no,checksum,programmed,VISUAL,,EPC Header,EPC
130932,6,1130932,01.130932.6,,340F7A427200100,340F7A427200100011309326
130938,2,1130938,01.130938.2,,340F7A427200100,340F7A427200100011309382
130947,4,1130947,01.130947.4,,340F7A427200100,340F7A427200100011309474
131108,8,1131108,01.131108.8,,340F7A427200100,340F7A427200100011311088
131113,6,1131113,01.131113.6,,340F7A427200100,340F7A427200100011311136
131114,7,1131114,01.131114.7,,340F7A427200100,340F7A427200100011311147
131120,6,1131120,01.131120.6,,340F7A427200100,340F7A427200100011311206
131131,0,1131131,01.131131.0,,340F7A427200100,340F7A427200100011311310
131364,4,1131364,01.131364.4,,340F7A427200100,340F7A427200100011313644
131366,6,1131366,01.131366.6,,340F7A427200100,340F7A427200100011313666
131367,7,1131367,01.131367.7,,340F7A427200100,340F7A427200100011313677
131376,9,1131376,01.131376.9,,340F7A427200100,340F7A427200100011313769
131389,5,1131389,01.131389.5,,340F7A427200100,340F7A427200100011313895
131423,2,1131423,01.131423.2,,340F7A427200100,340F7A427200100011314232
131430,2,1131430,01.131430.2,,340F7A427200100,340F7A427200100011314302
131453,1,1131453,01.131453.1,,340F7A427200100,340F7A427200100011314531
131625,6,1131625,01.131625.6,,340F7A427200100,340F7A427200100011316256
131631,5,1131631,01.131631.5,,340F7A427200100,340F7A427200100011316315
131680,9,1131680,01.131680.9,,340F7A427200100,340F7A427200100011316809
131698,0,1131698,01.131698.0,,340F7A427200100,340F7A427200100011316980
131700,6,1131700,01.131700.6,,340F7A427200100,340F7A427200100011317006
131713,2,1131713,01.131713.2,,340F7A427200100,340F7A427200100011317132
131777,4,1131777,01.131777.4,,340F7A427200100,340F7A427200100011317774
131779,6,1131779,01.131779.6,,340F7A427200100,340F7A427200100011317796
131792,5,1131792,01.131792.5,,340F7A427200100,340F7A427200100011317925
131800,7,1131800,01.131800.7,,340F7A427200100,340F7A427200100011318007
131804,1,1131804,01.131804.1,,340F7A427200100,340F7A427200100011318041
131805,2,1131805,01.131805.2,,340F7A427200100,340F7A427200100011318052
131814,4,1131814,01.131814.4,,340F7A427200100,340F7A427200100011318144
131821,4,1131821,01.131821.4,,340F7A427200100,340F7A427200100011318214
133962,4,1133962,01.133962.4,,340F7A427200100,340F7A427200100011339624
134033,0,1134033,01.134033.0,,340F7A427200100,340F7A427200100011340330
134034,1,1134034,01.134034.1,,340F7A427200100,340F7A427200100011340341
134035,2,1134035,01.134035.2,,340F7A427200100,340F7A427200100011340352
134037,4,1134037,01.134037.4,,340F7A427200100,340F7A427200100011340374
134045,5,1134045,01.134045.5,,340F7A427200100,340F7A427200100011340455
134048,8,1134048,01.134048.8,,340F7A427200100,340F7A427200100011340488
134050,3,1134050,01.134050.3,,340F7A427200100,340F7A427200100011340503
134054,7,1134054,01.134054.7,,340F7A427200100,340F7A427200100011340547
134055,8,1134055,01.134055.8,,340F7A427200100,340F7A427200100011340558
134057,0,1134057,01.134057.0,,340F7A427200100,340F7A427200100011340570
134059,2,1134059,01.134059.2,,340F7A427200100,340F7A427200100011340592
134061,7,1134061,01.134061.7,,340F7A427200100,340F7A427200100011340617
134067,3,1134067,01.134067.3,,340F7A427200100,340F7A427200100011340673
134069,5,1134069,01.134069.5,,340F7A427200100,340F7A427200100011340695
134073,2,1134073,01.134073.2,,340F7A427200100,340F7A427200100011340732
134077,6,1134077,01.134077.6,,340F7A427200100,340F7A427200100011340776
134080,2,1134080,01.134080.2,,340F7A427200100,340F7A427200100011340802
134087,9,1134087,01.134087.9,,340F7A427200100,340F7A427200100011340879
134089,1,1134089,01.134089.1,,340F7A427200100,340F7A427200100011340891
134316,0,1134316,01.134316.0,,340F7A427200100,340F7A427200100011343160
136645,7,1136645,01.136645.7,,340F7A427200100,340F7A427200100011366457
138685,5,1138685,01.138685.5,,340F7A427200100,340F7A427200100011386855
138789,0,1138789,01.138789.0,,340F7A427200100,340F7A427200100011387890
138836,3,1138836,01.138836.3,,340F7A427200100,340F7A427200100011388363
139157,6,1139157,01.139157.6,,340F7A427200100,340F7A427200100011391576
139383,3,1139383,01.139383.3,,340F7A427200100,340F7A427200100011393833
139465,0,1139465,01.139465.0,,340F7A427200100,340F7A427200100011394650
141775,3,1141775,01.141775.3,,340F7A427200100,340F7A427200100011417753
141953,7,1141953,01.141953.7,,340F7A427200100,340F7A427200100011419537
141993,9,1141993,01.141993.9,,340F7A427200100,340F7A427200100011419939
146585,9,1146585,01.146585.9,,340F7A427200100,340F7A427200100011465859
149084,2,1149084,01.149084.2,,340F7A427200100,340F7A427200100011490842
150574,8,1150574,01.150574.8,,340F7A427200100,340F7A427200100011505748
150578,2,1150578,01.150578.2,,340F7A427200100,340F7A427200100011505782
150584,1,1150584,01.150584.1,,340F7A427200100,340F7A427200100011505841
150602,6,1150602,01.150602.6,,340F7A427200100,340F7A427200100011506026
150619,6,1150619,01.150619.6,,340F7A427200100,340F7A427200100011506196
150639,2,1150639,01.150639.2,,340F7A427200100,340F7A427200100011506392
150662,4,1150662,01.150662.4,,340F7A427200100,340F7A427200100011506624
150670,5,1150670,01.150670.5,,340F7A427200100,340F7A427200100011506705
150708,3,1150708,01.150708.3,,340F7A427200100,340F7A427200100011507083
150714,2,1150714,01.150714.2,,340F7A427200100,340F7A427200100011507142
150717,5,1150717,01.150717.5,,340F7A427200100,340F7A427200100011507175
150723,4,1150723,01.150723.4,,340F7A427200100,340F7A427200100011507234
150735,9,1150735,01.150735.9,,340F7A427200100,340F7A427200100011507359
150755,5,1150755,01.150755.5,,340F7A427200100,340F7A427200100011507555
150764,7,1150764,01.150764.7,,340F7A427200100,340F7A427200100011507647
150766,9,1150766,01.150766.9,,340F7A427200100,340F7A427200100011507669
150771,7,1150771,01.150771.7,,340F7A427200100,340F7A427200100011507717
150784,3,1150784,01.150784.3,,340F7A427200100,340F7A427200100011507843
150788,7,1150788,01.150788.7,,340F7A427200100,340F7A427200100011507887
150789,8,1150789,01.150789.8,,340F7A427200100,340F7A427200100011507898
150791,3,1150791,01.150791.3,,340F7A427200100,340F7A427200100011507913
150792,4,1150792,01.150792.4,,340F7A427200100,340F7A427200100011507924
150794,6,1150794,01.150794.6,,340F7A427200100,340F7A427200100011507946
150796,8,1150796,01.150796.8,,340F7A427200100,340F7A427200100011507968
150797,9,1150797,01.150797.9,,340F7A427200100,340F7A427200100011507979
150799,1,1150799,01.150799.1,,340F7A427200100,340F7A427200100011507991
150861,5,1150861,01.150861.5,,340F7A427200100,340F7A427200100011508615
150943,2,1150943,01.150943.2,,340F7A427200100,340F7A427200100011509432
150946,5,1150946,01.150946.5,,340F7A427200100,340F7A427200100011509465
150948,7,1150948,01.150948.7,,340F7A427200100,340F7A427200100011509487
150954,6,1150954,01.150954.6,,340F7A427200100,340F7A427200100011509546
150979,7,1150979,01.150979.7,,340F7A427200100,340F7A427200100011509797
151049,2,1151049,01.151049.2,,340F7A427200100,340F7A427200100011510492
151088,3,1151088,01.151088.3,,340F7A427200100,340F7A427200100011510883
151096,4,1151096,01.151096.4,,340F7A427200100,340F7A427200100011510964
151097,5,1151097,01.151097.5,,340F7A427200100,340F7A427200100011510975
151098,6,1151098,01.151098.6,,340F7A427200100,340F7A427200100011510986
151101,3,1151101,01.151101.3,,340F7A427200100,340F7A427200100011511013
151134,5,1151134,01.151134.5,,340F7A427200100,340F7A427200100011511345
151495,7,1151495,01.151495.7,,340F7A427200100,340F7A427200100011514957
151504,0,1151504,01.151504.0,,340F7A427200100,340F7A427200100011515040
151506,2,1151506,01.151506.2,,340F7A427200100,340F7A427200100011515062
151631,7,1151631,01.151631.7,,340F7A427200100,340F7A427200100011516317
