4,9,96.8,27.4
0,0,8,8
1,0,122,8
2,0,236,8
3,0,350,8
0,1,8,41
1,1,122,41
2,1,236,41
3,1,350,41
0,2,8,74
1,2,122,74
2,2,236,74
3,2,350,74
0,3,8,107
1,3,122,107
2,3,236,107
3,3,350,107
0,4,8,140
1,4,122,140
2,4,236,140
3,4,350,140
0,5,8,173
1,5,122,173
2,5,236,173
3,5,350,173
0,6,8,206
1,6,122,206
2,6,236,206
3,6,350,206
0,7,8,239
1,7,122,239
2,7,236,239
3,7,350,239
0,8,8,272
1,8,122,272
2,8,236,272
3,8,350,272
